[
  {
    "original": "atlas/caballo/columna/original/columna01.nrrd",
    "segmentado": "atlas/caballo/columna/columnasegmentado01.nrrd",
    "miniatura": "atlas/caballo/columna/original/columna01-pequeño.png",
    "etiquetas": "atlas/caballo/columna/etiquetas/columna01-es-latin1.txt",
    "etiquetasEN": "atlas/caballo/columna/etiquetas/columna01-en.txt",
    "titulo": "Atlas: vista craneal"
  },
  {
    "original": "atlas/caballo/columna/original/columna02.nrrd",
    "segmentado": "atlas/caballo/columna/columnasegmentado02.nrrd",
    "miniatura": "atlas/caballo/columna/original/columna02-pequeño.png",
    "etiquetas": "atlas/caballo/columna/etiquetas/columna02-es-latin1.txt",
    "etiquetasEN": "atlas/caballo/columna/etiquetas/columna02-en.txt",
    "titulo": "Atlas: vista caudal"
  },
  {
    "original": "atlas/caballo/columna/original/columna03.nrrd",
    "segmentado": "atlas/caballo/columna/columnasegmentado03.nrrd",
    "miniatura": "atlas/caballo/columna/original/columna03-pequeño.png",
    "etiquetas": "atlas/caballo/columna/etiquetas/columna03-es-latin1.txt",
    "etiquetasEN": "atlas/caballo/columna/etiquetas/columna03-en.txt",
    "titulo": "Atlas: vista dorsal"
  },
  {
    "original": "atlas/caballo/columna/original/columna04.nrrd",
    "segmentado": "atlas/caballo/columna/columnasegmentado04.nrrd",
    "miniatura": "atlas/caballo/columna/original/columna04-pequeño.png",
    "etiquetas": "atlas/caballo/columna/etiquetas/columna04-es-latin1.txt",
    "etiquetasEN": "atlas/caballo/columna/etiquetas/columna04-en.txt",
    "titulo": "Atlas: vista ventral"
  },
  {
    "original": "atlas/caballo/columna/original/columna05.nrrd",
    "segmentado": "atlas/caballo/columna/columnasegmentado05.nrrd",
    "miniatura": "atlas/caballo/columna/original/columna05-pequeño.png",
    "etiquetas": "atlas/caballo/columna/etiquetas/columna05-es-latin1.txt",
    "etiquetasEN": "atlas/caballo/columna/etiquetas/columna05-en.txt",
    "titulo": "Axis: vista craneal"
  },
  {
    "original": "atlas/caballo/columna/original/columna06.nrrd",
    "segmentado": "atlas/caballo/columna/columnasegmentado06.nrrd",
    "miniatura": "atlas/caballo/columna/original/columna06-pequeño.png",
    "etiquetas": "atlas/caballo/columna/etiquetas/columna06-es-latin1.txt",
    "etiquetasEN": "atlas/caballo/columna/etiquetas/columna06-en.txt",
    "titulo": "Axis: vista caudal"
  },
  {
    "original": "atlas/caballo/columna/original/columna07.nrrd",
    "segmentado": "atlas/caballo/columna/columnasegmentado07.nrrd",
    "miniatura": "atlas/caballo/columna/original/columna07-pequeño.png",
    "etiquetas": "atlas/caballo/columna/etiquetas/columna07-es-latin1.txt",
    "etiquetasEN": "atlas/caballo/columna/etiquetas/columna07-en.txt",
    "titulo": "Axis: vista dorsal"
  },
  {
    "original": "atlas/caballo/columna/original/columna08.nrrd",
    "segmentado": "atlas/caballo/columna/columnasegmentado08.nrrd",
    "miniatura": "atlas/caballo/columna/original/columna08-pequeño.png",
    "etiquetas": "atlas/caballo/columna/etiquetas/columna08-es-latin1.txt",
    "etiquetasEN": "atlas/caballo/columna/etiquetas/columna08-en.txt",
    "titulo": "Axis: vista ventral"
  },
  {
    "original": "atlas/caballo/columna/original/columna09.nrrd",
    "segmentado": "atlas/caballo/columna/columnasegmentado09.nrrd",
    "miniatura": "atlas/caballo/columna/original/columna09-pequeño.png",
    "etiquetas": "atlas/caballo/columna/etiquetas/columna09-es-latin1.txt",
    "etiquetasEN": "atlas/caballo/columna/etiquetas/columna09-en.txt",
    "titulo": "3ª vertebra cervical: vista craneal"
  },
  {
    "original": "atlas/caballo/columna/original/columna10.nrrd",
    "segmentado": "atlas/caballo/columna/columnasegmentado10.nrrd",
    "miniatura": "atlas/caballo/columna/original/columna10-pequeño.png",
    "etiquetas": "atlas/caballo/columna/etiquetas/columna10-es-latin1.txt",
    "etiquetasEN": "atlas/caballo/columna/etiquetas/columna10-en.txt",
    "titulo": "3ª vertebra cervical: vista caudal"
  },
  {
    "original": "atlas/caballo/columna/original/columna11.nrrd",
    "segmentado": "atlas/caballo/columna/columnasegmentado11.nrrd",
    "miniatura": "atlas/caballo/columna/original/columna11-pequeño.png",
    "etiquetas": "atlas/caballo/columna/etiquetas/columna11-es-latin1.txt",
    "etiquetasEN": "atlas/caballo/columna/etiquetas/columna11-en.txt",
    "titulo": "3ª vertebra cervical: vista lateral derecha"
  },
  {
    "original": "atlas/caballo/columna/original/columna12.nrrd",
    "segmentado": "atlas/caballo/columna/columnasegmentado12.nrrd",
    "miniatura": "atlas/caballo/columna/original/columna12-pequeño.png",
    "etiquetas": "atlas/caballo/columna/etiquetas/columna12-es-latin1.txt",
    "etiquetasEN": "atlas/caballo/columna/etiquetas/columna12-en.txt",
    "titulo": "6ª vertebra torácica: vista craneal"
  },
  {
    "original": "atlas/caballo/columna/original/columna13.nrrd",
    "segmentado": "atlas/caballo/columna/columnasegmentado13.nrrd",
    "miniatura": "atlas/caballo/columna/original/columna13-pequeño.png",
    "etiquetas": "atlas/caballo/columna/etiquetas/columna13-es-latin1.txt",
    "etiquetasEN": "atlas/caballo/columna/etiquetas/columna13-en.txt",
    "titulo": "6ª vertebra torácica: vista caudal"
  },
  {
    "original": "atlas/caballo/columna/original/columna14.nrrd",
    "segmentado": "atlas/caballo/columna/columnasegmentado14.nrrd",
    "miniatura": "atlas/caballo/columna/original/columna14-pequeño.png",
    "etiquetas": "atlas/caballo/columna/etiquetas/columna14-es-latin1.txt",
    "etiquetasEN": "atlas/caballo/columna/etiquetas/columna14-en.txt",
    "titulo": "6ª vertebra torácica: vista lateral derecha"
  },
  {
    "original": "atlas/caballo/columna/original/columna15.nrrd",
    "segmentado": "atlas/caballo/columna/columnasegmentado15.nrrd",
    "miniatura": "atlas/caballo/columna/original/columna15-pequeño.png",
    "etiquetas": "atlas/caballo/columna/etiquetas/columna15-es-latin1.txt",
    "etiquetasEN": "atlas/caballo/columna/etiquetas/columna15-en.txt",
    "titulo": "4ª vertebra lumbar: vista craneal"
  },
  {
    "original": "atlas/caballo/columna/original/columna16.nrrd",
    "segmentado": "atlas/caballo/columna/columnasegmentado16.nrrd",
    "miniatura": "atlas/caballo/columna/original/columna16-pequeño.png",
    "etiquetas": "atlas/caballo/columna/etiquetas/columna16-es-latin1.txt",
    "etiquetasEN": "atlas/caballo/columna/etiquetas/columna16-en.txt",
    "titulo": "4ª vértebra lumbar: vista caudal"
  },
  {
    "original": "atlas/caballo/columna/original/columna17.nrrd",
    "segmentado": "atlas/caballo/columna/columnasegmentado17.nrrd",
    "miniatura": "atlas/caballo/columna/original/columna17-pequeño.png",
    "etiquetas": "atlas/caballo/columna/etiquetas/columna17-es-latin1.txt",
    "etiquetasEN": "atlas/caballo/columna/etiquetas/columna17-en.txt",
    "titulo": "Hueso sacro: vista lateral derecha"
  },
  {
    "original": "atlas/caballo/columna/original/columna18.nrrd",
    "segmentado": "atlas/caballo/columna/columnasegmentado18.nrrd",
    "miniatura": "atlas/caballo/columna/original/columna18-pequeño.png",
    "etiquetas": "atlas/caballo/columna/etiquetas/columna18-es-latin1.txt",
    "etiquetasEN": "atlas/caballo/columna/etiquetas/columna18-en.txt",
    "titulo": "Hueso sacro: vista dorsal"
  },
  {
    "original": "atlas/caballo/columna/original/columna19.nrrd",
    "segmentado": "atlas/caballo/columna/columnasegmentado19.nrrd",
    "miniatura": "atlas/caballo/columna/original/columna19-pequeño.png",
    "etiquetas": "atlas/caballo/columna/etiquetas/columna19-es-latin1.txt",
    "etiquetasEN": "atlas/caballo/columna/etiquetas/columna19-en.txt",
    "titulo": "Hueso sacro: vista ventral"
  },
  {
    "original": "atlas/caballo/columna/original/columna20.nrrd",
    "segmentado": "atlas/caballo/columna/columnasegmentado20.nrrd",
    "miniatura": "atlas/caballo/columna/original/columna20-pequeño.png",
    "etiquetas": "atlas/caballo/columna/etiquetas/columna20-es-latin1.txt",
    "etiquetasEN": "atlas/caballo/columna/etiquetas/columna20-en.txt",
    "titulo": "1ª vertebra caudal: vista craneal"
  },
  {
    "original": "atlas/caballo/columna/original/columna21.nrrd",
    "segmentado": "atlas/caballo/columna/columnasegmentado21.nrrd",
    "miniatura": "atlas/caballo/columna/original/columna21-pequeño.png",
    "etiquetas": "atlas/caballo/columna/etiquetas/columna21-es-latin1.txt",
    "etiquetasEN": "atlas/caballo/columna/etiquetas/columna21-en.txt",
    "titulo": "1ª vertebra caudal: vista caudal"
  },
  {
    "original": "atlas/caballo/columna/original/columna22.nrrd",
    "segmentado": "atlas/caballo/columna/columnasegmentado22.nrrd",
    "miniatura": "atlas/caballo/columna/original/columna22-pequeño.png",
    "etiquetas": "atlas/caballo/columna/etiquetas/columna22-es-latin1.txt",
    "etiquetasEN": "atlas/caballo/columna/etiquetas/columna22-en.txt",
    "titulo": "10ª vertebra caudal: vistas dorsal y ventral"
  }
]