[
  {
    "original": "atlas/caballo/toracico/original/toracico01.nrrd",
    "segmentado": "atlas/caballo/toracico/toracicosegmentado01.nrrd",
    "miniatura": "atlas/caballo/toracico/original/toracico01-pequeño.png",
    "etiquetas": "atlas/caballo/toracico/etiquetas/toracico01-es-latin1.txt",
    "etiquetasEN": "atlas/caballo/toracico/etiquetas/toracico01-en.txt",
    "titulo": "Esqueleto apendicular del miembro torácico: vista lateral derecha"
  },
  {
    "original": "atlas/caballo/toracico/original/toracico02.nrrd",
    "segmentado": "atlas/caballo/toracico/toracicosegmentado02.nrrd",
    "miniatura": "atlas/caballo/toracico/original/toracico02-pequeño.png",
    "etiquetas": "atlas/caballo/toracico/etiquetas/toracico02-es-latin1.txt",
    "etiquetasEN": "atlas/caballo/toracico/etiquetas/toracico02-en.txt",
    "titulo": "Escápula: vista lateral"
  },
  {
    "original": "atlas/caballo/toracico/original/toracico03.nrrd",
    "segmentado": "atlas/caballo/toracico/toracicosegmentado03.nrrd",
    "miniatura": "atlas/caballo/toracico/original/toracico03-pequeño.png",
    "etiquetas": "atlas/caballo/toracico/etiquetas/toracico03-es-latin1.txt",
    "etiquetasEN": "atlas/caballo/toracico/etiquetas/toracico03-en.txt",
    "titulo": "Escápula: vista medial"
  },
  {
    "original": "atlas/caballo/toracico/original/toracico04.nrrd",
    "segmentado": "atlas/caballo/toracico/toracicosegmentado04.nrrd",
    "miniatura": "atlas/caballo/toracico/original/toracico04-pequeño.png",
    "etiquetas": "atlas/caballo/toracico/etiquetas/toracico04-es-latin1.txt",
    "etiquetasEN": "atlas/caballo/toracico/etiquetas/toracico04-en.txt",
    "titulo": "Húmero: vista craneal"
  },
  {
    "original": "atlas/caballo/toracico/original/toracico05.nrrd",
    "segmentado": "atlas/caballo/toracico/toracicosegmentado05.nrrd",
    "miniatura": "atlas/caballo/toracico/original/toracico05-pequeño.png",
    "etiquetas": "atlas/caballo/toracico/etiquetas/toracico05-es-latin1.txt",
    "etiquetasEN": "atlas/caballo/toracico/etiquetas/toracico05-en.txt",
    "titulo": "Húmero: vista lateral"
  },
  {
    "original": "atlas/caballo/toracico/original/toracico06.nrrd",
    "segmentado": "atlas/caballo/toracico/toracicosegmentado06.nrrd",
    "miniatura": "atlas/caballo/toracico/original/toracico06-pequeño.png",
    "etiquetas": "atlas/caballo/toracico/etiquetas/toracico06-es-latin1.txt",
    "etiquetasEN": "atlas/caballo/toracico/etiquetas/toracico06-en.txt",
    "titulo": "Húmero: vista caudal"
  },
  {
    "original": "atlas/caballo/toracico/original/toracico07.nrrd",
    "segmentado": "atlas/caballo/toracico/toracicosegmentado07.nrrd",
    "miniatura": "atlas/caballo/toracico/original/toracico07-pequeño.png",
    "etiquetas": "atlas/caballo/toracico/etiquetas/toracico07-es-latin1.txt",
    "etiquetasEN": "atlas/caballo/toracico/etiquetas/toracico07-en.txt",
    "titulo": "Húmero: vista medial"
  },
  {
    "original": "atlas/caballo/toracico/original/toracico08.nrrd",
    "segmentado": "atlas/caballo/toracico/toracicosegmentado08.nrrd",
    "miniatura": "atlas/caballo/toracico/original/toracico08-pequeño.png",
    "etiquetas": "atlas/caballo/toracico/etiquetas/toracico08-es-latin1.txt",
    "etiquetasEN": "atlas/caballo/toracico/etiquetas/toracico08-en.txt",
    "titulo": "Cúbito y radio: vista craneal"
  },
  {
    "original": "atlas/caballo/toracico/original/toracico09.nrrd",
    "segmentado": "atlas/caballo/toracico/toracicosegmentado09.nrrd",
    "miniatura": "atlas/caballo/toracico/original/toracico09-pequeño.png",
    "etiquetas": "atlas/caballo/toracico/etiquetas/toracico09-es-latin1.txt",
    "etiquetasEN": "atlas/caballo/toracico/etiquetas/toracico09-en.txt",
    "titulo": "Cúbito y radio: vista lateral"
  },
  {
    "original": "atlas/caballo/toracico/original/toracico10.nrrd",
    "segmentado": "atlas/caballo/toracico/toracicosegmentado10.nrrd",
    "miniatura": "atlas/caballo/toracico/original/toracico10-pequeño.png",
    "etiquetas": "atlas/caballo/toracico/etiquetas/toracico10-es-latin1.txt",
    "etiquetasEN": "atlas/caballo/toracico/etiquetas/toracico10-en.txt",
    "titulo": "Cúbito y radio: vista caudal"
  },
  {
    "original": "atlas/caballo/toracico/original/toracico11.nrrd",
    "segmentado": "atlas/caballo/toracico/toracicosegmentado11.nrrd",
    "miniatura": "atlas/caballo/toracico/original/toracico11-pequeño.png",
    "etiquetas": "atlas/caballo/toracico/etiquetas/toracico11-es-latin1.txt",
    "etiquetasEN": "atlas/caballo/toracico/etiquetas/toracico11-en.txt",
    "titulo": "Esqueleto de la mano: vista dorsa"
  },
  {
    "original": "atlas/caballo/toracico/original/toracico12.nrrd",
    "segmentado": "atlas/caballo/toracico/toracicosegmentado12.nrrd",
    "miniatura": "atlas/caballo/toracico/original/toracico12-pequeño.png",
    "etiquetas": "atlas/caballo/toracico/etiquetas/toracico12-es-latin1.txt",
    "etiquetasEN": "atlas/caballo/toracico/etiquetas/toracico12-en.txt",
    "titulo": "Esqueleto de la mano: vista palmar"
  },
  {
    "original": "atlas/caballo/toracico/original/toracico13.nrrd",
    "segmentado": "atlas/caballo/toracico/toracicosegmentado13.nrrd",
    "miniatura": "atlas/caballo/toracico/original/toracico13-pequeño.png",
    "etiquetas": "atlas/caballo/toracico/etiquetas/toracico13-es-latin1.txt",
    "etiquetasEN": "atlas/caballo/toracico/etiquetas/toracico13-en.txt",
    "titulo": "Huesos del carpo y metacarpo: vistas dorsal y lateral"
  },
  {
    "original": "atlas/caballo/toracico/original/toracico14.nrrd",
    "segmentado": "atlas/caballo/toracico/toracicosegmentado14.nrrd",
    "miniatura": "atlas/caballo/toracico/original/toracico14-pequeño.png",
    "etiquetas": "atlas/caballo/toracico/etiquetas/toracico14-es-latin1.txt",
    "etiquetasEN": "atlas/caballo/toracico/etiquetas/toracico14-en.txt",
    "titulo": "Huesos del carpo y metacarpo: vistas palmar y medial"
  },
  {
    "original": "atlas/caballo/toracico/original/toracico15.nrrd",
    "segmentado": "atlas/caballo/toracico/toracicosegmentado15.nrrd",
    "miniatura": "atlas/caballo/toracico/original/toracico15-pequeño.png",
    "etiquetas": "atlas/caballo/toracico/etiquetas/toracico15-es-latin1.txt",
    "etiquetasEN": "atlas/caballo/toracico/etiquetas/toracico15-en.txt",
    "titulo": "Huesos del metacarpo: vistas dorsal y palmar"
  },
  {
    "original": "atlas/caballo/toracico/original/toracico16.nrrd",
    "segmentado": "atlas/caballo/toracico/toracicosegmentado16.nrrd",
    "miniatura": "atlas/caballo/toracico/original/toracico16-pequeño.png",
    "etiquetas": "atlas/caballo/toracico/etiquetas/toracico16-es-latin1.txt",
    "etiquetasEN": "atlas/caballo/toracico/etiquetas/toracico16-en.txt",
    "titulo": "Falange proximal: vistas dorsal y palma"
  },
  {
    "original": "atlas/caballo/toracico/original/toracico17.nrrd",
    "segmentado": "atlas/caballo/toracico/toracicosegmentado17.nrrd",
    "miniatura": "atlas/caballo/toracico/original/toracico17-pequeño.png",
    "etiquetas": "atlas/caballo/toracico/etiquetas/toracico17-es-latin1.txt",
    "etiquetasEN": "atlas/caballo/toracico/etiquetas/toracico17-en.txt",
    "titulo": "Falange media: vistas dorsal y palmar"
  },
  {
    "original": "atlas/caballo/toracico/original/toracico18.nrrd",
    "segmentado": "atlas/caballo/toracico/toracicosegmentado18.nrrd",
    "miniatura": "atlas/caballo/toracico/original/toracico18-pequeño.png",
    "etiquetas": "atlas/caballo/toracico/etiquetas/toracico18-es-latin1.txt",
    "etiquetasEN": "atlas/caballo/toracico/etiquetas/toracico18-en.txt",
    "titulo": "Falange distal: vistas dorsal y palmar"
  },
  {
    "original": "atlas/caballo/toracico/original/toracico19.nrrd",
    "segmentado": "atlas/caballo/toracico/toracicosegmentado19.nrrd",
    "miniatura": "atlas/caballo/toracico/original/toracico19-pequeño.png",
    "etiquetas": "atlas/caballo/toracico/etiquetas/toracico19-es-latin1.txt",
    "etiquetasEN": "atlas/caballo/toracico/etiquetas/toracico19-en.txt",
    "titulo": "Huesos sesamoideos proximales: vistas dorsal y palmar"
  },
  {
    "original": "atlas/caballo/toracico/original/toracico20.nrrd",
    "segmentado": "atlas/caballo/toracico/toracicosegmentado20.nrrd",
    "miniatura": "atlas/caballo/toracico/original/toracico20-pequeño.png",
    "etiquetas": "atlas/caballo/toracico/etiquetas/toracico20-es-latin1.txt",
    "etiquetasEN": "atlas/caballo/toracico/etiquetas/toracico20-en.txt",
    "titulo": "Hueso sesamoideo distal: vistas dorsal y palmar"
  }
]